<svg xmlns="http://www.w3.org/2000/svg" xmlns:xlink="http://www.w3.org/1999/xlink" version="1.1" x="0px" y="0px" viewBox="0 0 100 125" enable-background="new 0 0 100 100" xml:space="preserve">
  <path fill="#000000" d="M89.661,50.437c-0.177,4.249-1.133,8.348-2.935,12.191l-2.072-0.973c1.853-3.947,2.795-8.179,2.795-12.581  h0.022c-0.68-16.422-14.159-29.54-30.749-29.54c-11.653,0-21.707,6.519-26.945,16.06c3.745,1.357,7.102,3.617,9.718,6.663  l-1.732,1.491c-2.438-2.834-5.576-4.926-9.082-6.137c-0.003,0.006-0.007,0.012-0.01,0.019c-2.152-0.699-4.405-1.174-6.789-1.174  c-12.208,0-22.104,9.896-22.104,22.104s9.896,22.104,22.104,22.104c2.807,0,15.611,0.006,28.946,0.013V68.114H40.062l13.052-13.049  l13.052,13.049H55.399v12.565c13.785,0.007,26.985,0.014,29.126,0.014c8.743,0,15.83-6.595,15.83-15.337  C100.355,58.418,95.874,52.573,89.661,50.437z"/>
  <text x="0" y="100" font-weight="bold" fill="#ff0000">Uploading...</text>
</svg>
